<svg id="attendance-card" class="swipe_animation" xmlns="http://www.w3.org/2000/svg" viewBox="0 183.106 1000 679.466">
<defs>
    <style type="text/css">
        .swipe_animation {
            animation-name                    : swipe_animation;
            -webkit-animation-name            : swipe_animation;
            animation-duration                : 2s;
            -webkit-animation-duration        : 2s;
            animation-iteration-count         : infinite;
            -webkit-animation-iteration-count : infinite;
            animation-direction               : alternate;
            -webkit-animation-direction       : alternate;
        }

        @-webkit-keyframes swipe_animation {
            0% {
                -webkit-transform : translateX(50px);
                transform         : translateX(50px);
            }

            100% {
                -webkit-transform : translateX(-50px);
                transform         : translateX(-50px);
            }
        }

        @keyframes swipe_animation {
          0% {
            -webkit-transform : translateX(50px);
            transform         : translateX(50px);
          }

          100% {
            -webkit-transform : translateX(-50px);
            transform         : translateX(-50px);
          }
        }
    </style>
</defs>
<path fill="#4C4C4C" d="M984.7,709.1H15.3v82.5c0,33.1,26.9,60,60,60h849.4c33.1,0,60-26.9,60-60V709.1z"/>
<path fill="#4C4C4C" d="M984.7,255.6c0-33.101-26.9-60-60-60H75.3c-33.1,0-60,26.899-60,60v343.399h969.4V255.6z"/>
</svg>
