<svg id="checkmark" xmlns="http://www.w3.org/2000/svg" viewBox="0 0 300 227.849">
	 
<defs>
	<style type="text/css">

		.st0{fill:#fff;;stroke:#32B44A;stroke-width:25;stroke-miterlimit:5;}

		.st0 {
			stroke-dasharray: 2000;
			stroke-dashoffset:0;
			-webkit-animation: dash 2.5s linear forwards;
			-o-animation: dash 2.5s linear forwards;
			-moz-animation: dash 2.5s linear forwards;
			animation: dash 2.5s linear forwards;
		}

		@-webkit-keyframes dash {
			from {
				stroke-dashoffset: 2000;
			}
			to {
				stroke-dashoffset: 0;
			}
		}

	</style>

	<script type="text/javascript">

		var clicker = document.querySelector('#logo');

		clicker.addEventListener('click', function() {

			this.admin-class-list.toggle('clickit');

		});

	</script>

</defs>

<polyline class="st0" fill="none" stroke="#32B44A" stroke-width="15" stroke-miterlimit="10" points="11.903,119.832 77.726,213.081 
	292.916,9.706 "/>

	
</svg>
